<?xml version="1.0" encoding="utf-8"?>
<!-- Generator: Adobe Illustrator 21.1.0, SVG Export Plug-In . SVG Version: 6.00 Build 0)  -->
<svg version="1.1" id="Layer_1" xmlns="http://www.w3.org/2000/svg" xmlns:xlink="http://www.w3.org/1999/xlink" x="0px" y="0px"
	 viewBox="0 0 50 50" style="enable-background:new 0 0 50 50;" xml:space="preserve">
<style type="text/css">
	.st0{fill:#F08E53;}
	.st1{fill:#FFFFFF;}
</style>
<g>
	<path class="st0" d="M25,0C11.2,0,0,11.2,0,25s11.2,25,25,25s25-11.2,25-25S38.8,0,25,0L25,0z"/>
</g>
<g>
	<path class="st1" d="M34.9,31.3l-8.5-9.7v-1.3h3.5l-9.6-6.4L11,20.2h3.1V36h4.6v-6.3h3.1V36h4.5v-6.6l6.8,6.6H39v-4.8L34.9,31.3
		L34.9,31.3z M21.8,26.6h-3.1v-4.8h3.1V26.6z"/>
</g>
</svg>
