<?xml version="1.0" encoding="utf-8"?>
<!-- Generator: Adobe Illustrator 21.1.0, SVG Export Plug-In . SVG Version: 6.00 Build 0)  -->
<svg version="1.1" id="Layer_1" xmlns="http://www.w3.org/2000/svg" xmlns:xlink="http://www.w3.org/1999/xlink" x="0px" y="0px"
	 viewBox="0 0 50 50" style="enable-background:new 0 0 50 50;" xml:space="preserve">
<style type="text/css">
	.st0{fill:#71AFE0;}
	.st1{fill:#FFFFFF;}
</style>
<g>
	<path class="st0" d="M25,0C11.2,0,0,11.2,0,25s11.2,25,25,25s25-11.2,25-25S38.8,0,25,0L25,0z"/>
</g>
<g>
	<path class="st1" d="M19.8,32.8c-1.4,0-2.6,1.1-2.6,2.6s1.2,2.6,2.6,2.6s2.6-1.1,2.6-2.6C22.4,33.9,21.2,32.8,19.8,32.8L19.8,32.8z
		 M12,12v2.6h2.6l4.7,9.9l-1.8,3.1c-0.1,0.4-0.3,0.9-0.3,1.3c0,1.5,1.2,2.6,2.6,2.6h15.6v-2.6H20.3c-0.2,0-0.3-0.1-0.3-0.3v-0.1
		l1.1-2.2h9.6c1,0,1.8-0.5,2.2-1.3l4.7-8.4c0.3-0.3,0.3-0.5,0.3-0.7c0-0.8-0.5-1.3-1.3-1.3H17.5L16.3,12H12z M32.8,32.8
		c-1.4,0-2.6,1.1-2.6,2.6s1.2,2.6,2.6,2.6c1.4,0,2.6-1.1,2.6-2.6C35.4,33.9,34.3,32.8,32.8,32.8L32.8,32.8z"/>
</g>
</svg>
